Scraping top 250 movies on IMDB
…
## Create a data frame: `imdb_top_250`

```r
imdb_top_250 <- tibble(
  title = titles, 
  year = years, 
  rating = ratings
  )

imdb_top_250
```

```
## # A tibble: 250 × 3
##   title                  year rating
##   <chr>                 <dbl>  <dbl>
## 1 Le ali della libertà   1994    9.2
## 2 Il padrino             1972    9.1
## 3 Il padrino - Parte II  1974    9  
## 4 Il cavaliere oscuro    2008    9  
## 5 La parola ai giurati   1957    8.9
## 6 Schindler's List       1993    8.9
## # … with 244 more rows
```
…
- Add a variable for rank

```r
imdb_top_250 <- imdb_top_250 %>%
  mutate(rank = 1:nrow(imdb_top_250)) %>%
  relocate(rank)
```

---

```
## # A tibble: 250 × 4
##     rank title                                        year rating
##    <int> <chr>                                       <dbl>  <dbl>
##  1     1 Le ali della libertà                         1994    9.2
##  2     2 Il padrino                                   1972    9.1
##  3     3 Il padrino - Parte II                        1974    9  
##  4     4 Il cavaliere oscuro                          2008    9  
##  5     5 La parola ai giurati                         1957    8.9
##  6     6 Schindler's List                             1993    8.9
##  7     7 Il Signore degli Anelli - Il ritorno del re  2003    8.9
##  8     8 Pulp Fiction                                 1994    8.8
##  9     9 Il buono, il brutto, il cattivo              1966    8.8
## 10    10 Il Signore degli Anelli - La compagnia del…  2001    8.8
## 11    11 Fight Club                                   1999    8.7
## 12    12 Forrest Gump                                 1994    8.7
## 13    13 Inception                                    2010    8.7
## 14    14 Il Signore degli Anelli - Le due torri       2002    8.7
## 15    15 L'Impero colpisce ancora                     1980    8.7
## 16    16 Matrix                                       1999    8.7
## 17    17 Quei bravi ragazzi                           1990    8.6
## 18    18 Qualcuno volò sul nido del cuculo            1975    8.6
## 19    19 I sette samurai                              1954    8.6
## 20    20 Seven                                        1995    8.6
## # … with 230 more rows
```
…
---

.question[
Which years have the most movies on the list?
]

--

```r
imdb_top_250 %>% 
  count(year, sort = TRUE)
```

```
## # A tibble: 86 × 2
##    year     n
##   <dbl> <int>
## 1  1995     8
## 2  1957     7
## 3  2000     7
## 4  2019     7
## 5  2004     6
## 6  2009     6
## # … with 80 more rows
```
…
