Intro to Text Mining: Tidy Text
…
---
# tokenization: one row per word

```r
unnest_tokens(tbl = text_df, output = word, input = text)
```

```
## # A tibble: 20 × 2
##    line word   
##   <int> <chr>  
## 1     1 because
## 2     1 i      
## 3     1 could  
## 4     1 not    
## 5     1 stop   
## 6     1 for    
## # … with 14 more rows
```
…
---

## Jane Austen's novels

```r
library(janeaustenr)
library(stringr)

# one sentence per row
austen_books()
```

```
## # A tibble: 73,422 × 2
##   text                    book               
## * <chr>                   <fct>              
## 1 "SENSE AND SENSIBILITY" Sense & Sensibility
## 2 ""                      Sense & Sensibility
## 3 "by Jane Austen"        Sense & Sensibility
## 4 ""                      Sense & Sensibility
## 5 "(1811)"                Sense & Sensibility
## 6 ""                      Sense & Sensibility
## # … with 73,416 more rows
```
…
# Add line and chapter numbers relative to books

```r
original_books <- austen_books() %>%
  group_by(book) %>%
  mutate(linenumber = row_number(),
         chapter = cumsum(
           str_detect(text, regex("^chapter [\\divxlc]", ignore_case = TRUE)))) %>%
  ungroup()

original_books
```

```
## # A tibble: 73,422 × 4
##   text                    book                linenumber chapter
##   <chr>                   <fct>                    <int>   <int>
## 1 "SENSE AND SENSIBILITY" Sense & Sensibility          1       0
## 2 ""                      Sense & Sensibility          2       0
## 3 "by Jane Austen"        Sense & Sensibility          3       0
## 4 ""                      Sense & Sensibility          4       0
## 5 "(1811)"                Sense & Sensibility          5       0
## 6 ""                      Sense & Sensibility          6       0
## # … with 73,416 more rows
```

---

# tokenize: one work per row

```r
tidy_books <- original_books %>%
  unnest_tokens(word, text)

tidy_books
```

```
## # A tibble: 725,055 × 4
##   book                linenumber chapter word       
##   <fct>                    <int>   <int> <chr>      
## 1 Sense & Sensibility          1       0 sense      
## 2 Sense & Sensibility          1       0 and        
## 3 Sense & Sensibility          1       0 sensibility
## 4 Sense & Sensibility          3       0 by         
## 5 Sense & Sensibility          3       0 jane       
## 6 Sense & Sensibility          3       0 austen     
## # … with 725,049 more rows
```

---

# remove stop words

```r
stop_words
```

```
## # A tibble: 1,149 × 2
##   word      lexicon
##   <chr>     <chr>  
## 1 a         SMART  
## 2 a's       SMART  
## 3 able      SMART  
## 4 about     SMART  
## 5 above     SMART  
## 6 according SMART  
## # … with 1,143 more rows
```
…
---

# word frequency

```r
tidy_books %>%
  count(word, sort = TRUE) 
```

```
## # A tibble: 13,914 × 2
##   word      n
##   <chr> <int>
## 1 miss   1855
## 2 time   1337
## 3 fanny   862
## 4 dear    822
## 5 lady    817
## 6 sir     806
## # … with 13,908 more rows
```
…
---

# Porter's word stemming

```r
library(SnowballC)
tidy_books <- tidy_books %>%
  mutate(word = wordStem(word)) # stemming

tidy_books
```

```
## # A tibble: 217,609 × 4
##   book                linenumber chapter word   
##   <fct>                    <int>   <int> <chr>  
## 1 Sense & Sensibility          1       0 sens   
## 2 Sense & Sensibility          1       0 sensibl
## 3 Sense & Sensibility          3       0 jane   
## 4 Sense & Sensibility          3       0 austen 
## 5 Sense & Sensibility          5       0 1811   
## 6 Sense & Sensibility         10       1 chapter
## # … with 217,603 more rows
```
…
```r
library(gutenbergr)

# run once and save the result as RDS
#hgwells <- gutenberg_download(c(35, 36, 5230, 159))
#write_rds(hgwells, "hgwells.rds")

# read from RDS
hgwells = read_rds("hgwells.rds")
hgwells
```

```
## # A tibble: 20,020 × 2
##   gutenberg_id text              
##          <int> <chr>             
## 1           35 "The Time Machine"
## 2           35 ""                
## 3           35 "An Invention"    
## 4           35 ""                
## 5           35 "by H. G. Wells"  
## 6           35 ""                
## # … with 20,014 more rows
```

---
--- 

```r
tidy_hgwells <- hgwells %>%
  unnest_tokens(word, text) %>%
  anti_join(stop_words)

tidy_hgwells %>%
  count(word, sort = TRUE)
```

```
## # A tibble: 11,811 × 2
##   word       n
##   <chr>  <int>
## 1 time     461
## 2 people   302
## 3 door     260
## 4 heard    249
## 5 black    232
## 6 stood    229
## # … with 11,805 more rows
```
…
Download the [RDS file](bronte.rds).

```r
# run once and save the result as RDS
# bronte <- gutenberg_download(c(1260, 768, 969, 9182, 767))
# write_rds(bronte, "bronte.rds")

# read from RDS
bronte = read_rds("bronte.rds")
bronte
```

```
## # A tibble: 80,117 × 2
##   gutenberg_id text            
##          <int> <chr>           
## 1          767 "Agnes Grey"    
## 2          767 "A NOVEL,"      
## 3          767 ""              
## 4          767 "by ACTON BELL."
## 5          767 ""              
## 6          767 "LONDON:"       
## # … with 80,111 more rows
```

---

```r
tidy_bronte <- bronte %>%
  unnest_tokens(word, text) %>%
  anti_join(stop_words)

tidy_bronte %>%
  count(word, sort = TRUE)
```

```
## # A tibble: 23,297 × 2
##   word      n
##   <chr> <int>
## 1 time   1065
## 2 miss    854
## 3 day     825
## 4 hand    767
## 5 eyes    714
## 6 don’t   666
## # … with 23,291 more rows
```
…
frequency
```

```
## # A tibble: 30,292 × 4
##   word      `Bronte Sisters` `H.G. Wells` `Jane Austen`
##   <chr>                <dbl>        <dbl>         <dbl>
## 1 a               0.0000587     0.0000147    0.0000138 
## 2 a'n't          NA            NA            0.00000460
## 3 aback           0.00000391    0.0000147   NA         
## 4 abaht           0.00000391   NA           NA         
## 5 abandon         0.0000313     0.0000147    0.00000460
## 6 abandoned       0.0000900     0.000177    NA         
## # … with 30,286 more rows
```
…
