Doing data science
…
---

## Validate with at least one external data source

.pull-left[

```
## # A tibble: 3,023 × 2
##     long   lat
##    <dbl> <dbl>
##  1 -74.0  40.8
##  2 -74.0  40.8
##  3 -74.0  40.8
##  4 -74.0  40.8
##  5 -74.0  40.8
##  6 -74.0  40.8
##  7 -74.0  40.8
##  8 -74.0  40.8
##  9 -74.0  40.8
## 10 -74.0  40.8
## 11 -74.0  40.8
## 12 -74.0  40.8
## 13 -74.0  40.8
## 14 -74.0  40.8
## 15 -74.0  40.8
## # … with 3,008 more rows
```
…
